%YAML 1.1
%TAG !u! tag:unity3d.com,2011:
--- !u!114 &-9005314979391295298
MonoBehaviour:
  m_ObjectHideFlags: 11
  m_CorrespondingSourceObject: {fileID: 0}
  m_PrefabInstance: {fileID: 0}
  m_PrefabAsset: {fileID: 0}
  m_GameObject: {fileID: 0}
  m_Enabled: 1
  m_EditorHideFlags: 0
  m_Script: {fileID: 11500000, guid: d0353a89b1f911e48b9e16bdc9f2e058, type: 3}
  m_Name: 
  m_EditorClassIdentifier: 
  version: 5
--- !u!21 &2100000
Material:
  serializedVersion: 8
  m_ObjectHideFlags: 0
  m_CorrespondingSourceObject: {fileID: 0}
  m_PrefabInstance: {fileID: 0}
  m_PrefabAsset: {fileID: 0}
  m_Name: PolyProtonRed
  m_Shader: {fileID: 4800000, guid: f2cb1b80b68b95a489fadaa5754bca06, type: 3}
  m_ValidKeywords: []
  m_InvalidKeywords: []
  m_LightmapFlags: 4
  m_EnableInstancingVariants: 0
  m_DoubleSidedGI: 0
  m_CustomRenderQueue: -1
  stringTagMap: {}
  disabledShaderPasses: []
  m_SavedProperties:
    serializedVersion: 3
    m_TexEnvs:
    - _BumpMap:
        m_Texture: {fileID: 0}
        m_Scale: {x: 1, y: 1}
        m_Offset: {x: 0, y: 0}
    - _MainTex:
        m_Texture: {fileID: 2800000, guid: 68d05d7ca7c08bd44b7445d7d76c4a2f, type: 3}
        m_Scale: {x: 1, y: 1}
        m_Offset: {x: 0, y: 0}
    - unity_Lightmaps:
        m_Texture: {fileID: 0}
        m_Scale: {x: 1, y: 1}
        m_Offset: {x: 0, y: 0}
    - unity_LightmapsInd:
        m_Texture: {fileID: 0}
        m_Scale: {x: 1, y: 1}
        m_Offset: {x: 0, y: 0}
    - unity_ShadowMasks:
        m_Texture: {fileID: 0}
        m_Scale: {x: 1, y: 1}
        m_Offset: {x: 0, y: 0}
    m_Ints: []
    m_Floats:
    - FresnelSize: 3
    - Vector1_CA637FD8: 9
    - _InvFade: 3
    - _QueueControl: 0
    - _QueueOffset: 0
    - _RimGlow: 2.91
    - _RimPower: 3.14
    - _RimWidth: 2.6
    - _Shininess: 1
    m_Colors:
    - Albedo: {r: 0.9372549, g: 0.1813184, b: 0, a: 0}
    - Color_1A0BCCE7: {r: 7.1843157, g: 1.4410712, b: 0, a: 0}
    - Color_8EE4FC62: {r: 0.16078432, g: 0.0014015551, b: 0, a: 0}
    - FresnelColor: {r: 1.4980391, g: 0.78537047, b: 0.49411762, a: 0}
    - _InnerColor: {r: 0.18382353, g: 0.056675814, b: 0.035142735, a: 1}
    - _RimColor: {r: 0.85294116, g: 0.49567473, b: 0.112889275, a: 1}
    - _SpecColor: {r: 1, g: 1, b: 1, a: 1}
    - _TintColor: {r: 0.5, g: 0.5, b: 0.5, a: 0.5}
  m_BuildTextureStacks: []
