%YAML 1.1
%TAG !u! tag:unity3d.com,2011:
--- !u!21 &2100000
Material:
  serializedVersion: 8
  m_ObjectHideFlags: 0
  m_CorrespondingSourceObject: {fileID: 0}
  m_PrefabInstance: {fileID: 0}
  m_PrefabAsset: {fileID: 0}
  m_Name: PolyBlackHoleRed
  m_Shader: {fileID: 4800000, guid: 937ba73c3fa53a644bec5a0aca92a62f, type: 3}
  m_ValidKeywords: []
  m_InvalidKeywords: []
  m_LightmapFlags: 4
  m_EnableInstancingVariants: 0
  m_DoubleSidedGI: 0
  m_CustomRenderQueue: -1
  stringTagMap: {}
  disabledShaderPasses: []
  m_SavedProperties:
    serializedVersion: 3
    m_TexEnvs:
    - _BumpMap:
        m_Texture: {fileID: 0}
        m_Scale: {x: 1, y: 1}
        m_Offset: {x: 0, y: 0}
    - _MainTex:
        m_Texture: {fileID: 2800000, guid: 68d05d7ca7c08bd44b7445d7d76c4a2f, type: 3}
        m_Scale: {x: 1, y: 1}
        m_Offset: {x: 0, y: 0}
    m_Ints: []
    m_Floats:
    - FresnelSize: 5
    - Vector1_CA637FD8: 7
    - _InvFade: 3
    - _RimGlow: 6.75
    - _RimPower: 3.14
    - _RimWidth: 4.1
    - _Shininess: 1
    m_Colors:
    - Albedo: {r: 0, g: 0, b: 0, a: 0}
    - Color_1A0BCCE7: {r: 16.94838, g: 2.750784, b: 0.8873497, a: 0}
    - Color_8EE4FC62: {r: 0, g: 0, b: 0, a: 0}
    - FresnelColor: {r: 16, g: 1.3872248, b: 0.3199997, a: 0}
    - _InnerColor: {r: 0, g: 0, b: 0, a: 1}
    - _RimColor: {r: 1, g: 0.40334687, b: 0.18382353, a: 1}
    - _SpecColor: {r: 1, g: 1, b: 1, a: 1}
    - _TintColor: {r: 0.5, g: 0.5, b: 0.5, a: 0.5}
  m_BuildTextureStacks: []
--- !u!114 &2767791457880057038
MonoBehaviour:
  m_ObjectHideFlags: 11
  m_CorrespondingSourceObject: {fileID: 0}
  m_PrefabInstance: {fileID: 0}
  m_PrefabAsset: {fileID: 0}
  m_GameObject: {fileID: 0}
  m_Enabled: 1
  m_EditorHideFlags: 0
  m_Script: {fileID: 11500000, guid: d0353a89b1f911e48b9e16bdc9f2e058, type: 3}
  m_Name: 
  m_EditorClassIdentifier: 
  version: 5
