%YAML 1.1
%TAG !u! tag:unity3d.com,2011:
--- !u!21 &2100000
Material:
  serializedVersion: 8
  m_ObjectHideFlags: 0
  m_CorrespondingSourceObject: {fileID: 0}
  m_PrefabInstance: {fileID: 0}
  m_PrefabAsset: {fileID: 0}
  m_Name: PolyBubbleSlime
  m_Shader: {fileID: 4800000, guid: f2cb1b80b68b95a489fadaa5754bca06, type: 3}
  m_ValidKeywords: []
  m_InvalidKeywords: []
  m_LightmapFlags: 4
  m_EnableInstancingVariants: 0
  m_DoubleSidedGI: 0
  m_CustomRenderQueue: -1
  stringTagMap: {}
  disabledShaderPasses: []
  m_SavedProperties:
    serializedVersion: 3
    m_TexEnvs:
    - _BumpMap:
        m_Texture: {fileID: 0}
        m_Scale: {x: 1, y: 1}
        m_Offset: {x: 0, y: 0}
    - _MainTex:
        m_Texture: {fileID: 2800000, guid: 68d05d7ca7c08bd44b7445d7d76c4a2f, type: 3}
        m_Scale: {x: 1, y: 1}
        m_Offset: {x: 0, y: 0}
    m_Ints: []
    m_Floats:
    - FresnelSize: 4.46
    - _InvFade: 3
    - _RimGlow: 5
    - _RimPower: 3.14
    - _RimWidth: 5
    - _Shininess: 1
    m_Colors:
    - Albedo: {r: 0.18402857, g: 0.07678433, b: 0.34901962, a: 0}
    - FresnelColor: {r: 3.7917268, g: 0.7114462, b: 5.0817595, a: 0}
    - _InnerColor: {r: 0.45626855, g: 0.19335172, b: 0.5188679, a: 1}
    - _RimColor: {r: 0.89989847, g: 0.37254906, b: 1, a: 1}
    - _SpecColor: {r: 1, g: 1, b: 1, a: 1}
    - _TintColor: {r: 0.5, g: 0.5, b: 0.5, a: 0.5}
  m_BuildTextureStacks: []
--- !u!114 &7099763666540789253
MonoBehaviour:
  m_ObjectHideFlags: 11
  m_CorrespondingSourceObject: {fileID: 0}
  m_PrefabInstance: {fileID: 0}
  m_PrefabAsset: {fileID: 0}
  m_GameObject: {fileID: 0}
  m_Enabled: 1
  m_EditorHideFlags: 0
  m_Script: {fileID: 11500000, guid: d0353a89b1f911e48b9e16bdc9f2e058, type: 3}
  m_Name: 
  m_EditorClassIdentifier: 
  version: 5
